{  
   "clients":[  
      {  
         "client_id":"7639af9c-ae33-475b-a66b-13146f28e94f",
         "permissions":[  
            {  
               "path":"/catalogs",
               "operations":[  
                  "read_write"
               ]
            }
         ]
      }
   ]
}