<?xml version="1.0" encoding="utf-8"?>
<!-- Generator: Adobe Illustrator 24.1.0, SVG Export Plug-In . SVG Version: 6.00 Build 0)  -->
<svg version="1.1" id="Layer_1" xmlns="http://www.w3.org/2000/svg" xmlns:xlink="http://www.w3.org/1999/xlink" x="0px" y="0px"
	 viewBox="0 0 162 28" style="enable-background:new 0 0 162 28;" xml:space="preserve">
<style type="text/css">
	.st0{fill:#002C69;}
	.st1{fill:#E96C1E;}
</style>
<g>
	<path class="st0" d="M99.3,12.9l-1,1.9c0.1,0.2,1.3,2.5,1.3,4.6c0,0.8-0.3,1.1-0.3,1.1h-20v-7.7h-0.3l-1.3,0.7v9.1
		c0,1.6-1,3.7-4,3.6c0,0,0,0.6,0,0.6c0.5,0.1,1,0.1,1.3,0.1c2.2,0,4.1-1.1,4.2-4.3h20.1c0.2,0,1.4-1.6,1.4-3.7
		c0-1.9-1.1-5.5-1.3-6.1H99.3z"/>
	<path class="st0" d="M136.2,8.6v11.4c0,1.4-0.4,2.2-0.7,2.6h0.6c0.8-0.4,1.6-2.1,1.6-3.8V8h-0.2L136.2,8.6z"/>
	<path class="st0" d="M88.4,24.2c-0.6,0-1,0.5-1,1c0,0.6,0.5,1,1,1c0.6,0,1-0.5,1-1C89.4,24.6,88.9,24.2,88.4,24.2z"/>
	<path class="st0" d="M132.2,8.6v11.4c0,0.2,0,0.5-0.3,0.5h-10.8c2.6-3,0-7-1.3-7.7c-0.5,0.2-1.5,0.6-2,0.9
		c-2.5,3.8-6.9,5.7-8.7,6.3c0.7-0.4,1.3-1.2,1.3-3V8h-0.2l-1.4,0.6v9.3c0,2.4-0.9,2.7-2.2,2.7H106c-0.5,0-0.8-0.4-0.8-0.9v-8.3
		c0-0.8-0.2-2-1-2.7l-1.1,2c0,0,0.5,0.4,0.5,1.1c0,0,0,8,0,8c0,2,0.4,2.9,2.5,2.9H132c0.5,0,1.7-1.7,1.7-3.8V8h-0.2L132.2,8.6z
		 M120.4,20.6h-8.7c3.2-1.5,5.4-4,6.5-6.2C120,15.2,121.9,18.1,120.4,20.6z"/>
	<path class="st0" d="M91.2,24.2c-0.6,0-1,0.5-1,1c0,0.6,0.5,1,1,1c0.6,0,1-0.5,1-1C92.3,24.6,91.8,24.2,91.2,24.2z"/>
	<path class="st0" d="M32.9,12.7c-3,0-3.7,1.5-3.9,2.9h2.5c0-0.9,0.1-2.1,1.5-2.1c1.3,0,1.3,1.5,1.3,2.8v1.1c-1.3,0-5.5,0.3-5.5,3.2
		c0,1.2,1.2,2.4,2.8,2.4c1.6,0,2.3-1,2.7-1.5v1.2h2.1v-6.4C36.4,14.2,35.9,12.7,32.9,12.7z M34.3,19.2c0,1.4-0.7,2.5-2,2.5
		c-0.8,0-1.3-0.7-1.3-1.6c0-2,2.5-2.1,3.2-2.1V19.2z"/>
	<path class="st0" d="M43.9,20.6l-3.1-7.7h-3.6v0.4c1.4,0.1,1.7,0.7,2.2,1.9l3.4,8.1L42.6,24c-0.3,0.8-0.8,1.8-1.7,1.8
		c-1,0-1.1-0.9-1.1-1.6h-2.4c0.1,0.9,0.6,2.7,2.9,2.7c2.3,0,3-1.8,3.7-3.5l4.2-10.6H47L43.9,20.6z"/>
	<path class="st0" d="M61.7,15.5L61.7,15.5l0-2.8l-3.8,0.7v0.4c1.3,0,1.7,0.4,1.7,1.9v7h2.1v-5c0-1.5,0.6-3.1,2.7-3.1
		c0.4,0,0.7,0.2,1.1,0.3v-2c-0.4-0.1-0.8-0.1-1.1-0.1C62.7,12.7,62,14.5,61.7,15.5z"/>
	<path class="st0" d="M5.5,12.7c-3,0-3.7,1.5-3.9,2.9h2.5c0-0.9,0.1-2.1,1.5-2.1c1.3,0,1.3,1.5,1.3,2.8v1.1c-1.3,0-5.5,0.3-5.5,3.2
		c0,1.2,1.2,2.4,2.8,2.4c1.6,0,2.3-1,2.7-1.5v1.2H9v-6.4C9,14.2,8.5,12.7,5.5,12.7z M6.9,19.2c0,1.4-0.7,2.5-1.9,2.5
		c-0.8,0-1.3-0.7-1.3-1.6c0-2,2.5-2.1,3.2-2.1V19.2z"/>
	<path class="st0" d="M24.7,9.4l-2.1,1.9v1.7H21v0.8h1.6v6.4c0,2.4,1.2,2.7,3.2,2.7c0.5,0,0.9-0.1,1.4-0.2v-0.8
		C26.9,22,26.7,22,26.4,22c-1.6,0-1.7-0.6-1.7-2.1v-6.1h2.7v-0.8h-2.7V9.4z"/>
	<path class="st0" d="M53.3,12.7c-2.8,0-4.4,1.5-4.4,4.8c0,3.5,1.9,5.5,5.1,5.5c1.4,0,2.6-0.4,3-0.6v-0.9c-0.4,0.1-1.1,0.4-2,0.4
		c-3,0-3.8-3-3.8-5.1h6C57.2,15.3,56.9,12.7,53.3,12.7z M51.3,15.9c0-0.8,0.4-2.5,2-2.5c1.8,0,1.9,2,1.9,2.5H51.3z"/>
	<path class="st0" d="M10,8.9c1.2,0.1,1.6,0.4,1.6,1.9v11.8h2.1V8L10,8.5V8.9z"/>
	<path class="st1" d="M146.1,21c0,0,3.6-6.4,10.6-7.2l1.3-3.7C148.6,11.4,146.1,21,146.1,21z"/>
	<path class="st1" d="M143.1,22.6l1.6,3.1c1.4,0.2,10.4-1.2,11.9-10.6C155.8,17.2,150.8,23.4,143.1,22.6z"/>
	<path class="st1" d="M146.4,18.2C149,6.9,157.6,4.7,159.6,4.4l1.5-4.3C155.2,1.1,146.8,7.3,146.4,18.2z"/>
</g>
</svg>
