<svg xmlns="http://www.w3.org/2000/svg" width="32" height="22" viewBox="0 0 32 22">
    <g fill="none" fill-rule="evenodd">
        <rect width="31" height="21" x=".5" y=".5" fill="#FFF" stroke="#000" rx="2"/>
        <text fill="#000" font-family="AvenirLTStd-Black, Avenir LT Std" font-size="7" font-weight="700" letter-spacing=".778">
            <tspan x="5" y="14">CASH</tspan>
        </text>
    </g>
</svg>
